6.713368038688556680e+02,0.000000000000000000e+00,3.027389457837902569e+02
0.000000000000000000e+00,6.752236667500631029e+02,1.631483376800134408e+02
0.000000000000000000e+00,0.000000000000000000e+00,1.000000000000000000e+00
