5.680932006835937500e+02,0.000000000000000000e+00,2.969486208059352066e+02
0.000000000000000000e+00,5.672860107421875000e+02,1.603268191620736616e+02
0.000000000000000000e+00,0.000000000000000000e+00,1.000000000000000000e+00
